# This file was automatically created by FeynRules $Revision: 595 $
# Mathematica version: 9.0 for Mac OS X x86 (64-bit) (November 20, 2012)
# Date: Wed 5 Jun 2013 11:49:33


# 
# This is the logfile for the model Standard Model and anomalous quartic couplings

# Authors: N. Christensen, C. Duhr, modified by OJPE and MCGG
# Model version: 1.4
# Checking the Lagrangians
   * All Lagrangians are ok.
#
# Particle definitions
#

   * No particles removed. All particles correspond to GenInt setup.

# Automatically assigned PDG numbers
   * Assigned PDG number 9000001 to particle ghA
   * Assigned PDG number 9000002 to particle ghZ
   * Assigned PDG number 9000003 to particle ghWp
   * Assigned PDG number 9000004 to particle ghWm
   * Assigned PDG number 9000005 to particle ghG


# Compulsory PDG codes:
   * Class SM leptons complete.
   * Class SM neutrinos complete.
   * Class SM quarks complete.
   * Class SM gauge bosons complete.
#
# Parameter definitions
#

   * All parameters are ok.


# Vertices
   * Calling FeynmanRules for 8 Lagrangians.
   * Number of classes vertices: 114
   * Number of flavored vertices: 114
   * Saved vertices in InterfaceRun[ 1 ].
   * Checked QNumber conservation.
      - Quantum number GhostNumber conserved in all vertices.
      - Quantum number LeptonNumber conserved in all vertices.
      - Quantum number Q conserved in all vertices.
   * particles.py written.
   * parameters.py written.
#
# Vertex definitions
#

   * 114 vertices written.
   * vertices.py written.
#
# Lorentz structure definitions
#

   * 123 lorentz structures written.
   * lorentz.py written.
#
# Coupling definitions
#

   * 172 couplings written.
   * couplings.py written.
